<svg xmlns="http://www.w3.org/2000/svg" width="14.212" height="17.749" viewBox="0 0 14.212 17.749">
  <g id="copy" transform="translate(-48.65)">
    <g id="Group_138" data-name="Group 138" transform="translate(48.65)">
      <path id="Path_449" data-name="Path 449" d="M58.3,85.4H50.053a1.4,1.4,0,0,0-1.4,1.4V98.642a1.4,1.4,0,0,0,1.4,1.4H58.3a1.4,1.4,0,0,0,1.4-1.4V86.8A1.409,1.409,0,0,0,58.3,85.4Zm.418,13.238a.422.422,0,0,1-.422.422H50.049a.422.422,0,0,1-.422-.422V86.8a.422.422,0,0,1,.422-.422H58.3a.422.422,0,0,1,.422.422Z" transform="translate(-48.65 -82.296)" fill="#b2bec3"/>
      <path id="Path_450" data-name="Path 450" d="M145.1,0h-8.251a1.4,1.4,0,0,0-1.4,1.4.491.491,0,1,0,.981,0,.422.422,0,0,1,.422-.422H145.1a.422.422,0,0,1,.422.422V13.242a.422.422,0,0,1-.422.422.491.491,0,1,0,0,.981,1.4,1.4,0,0,0,1.4-1.4V1.4A1.4,1.4,0,0,0,145.1,0Z" transform="translate(-132.295)" fill="#b2bec3"/>
    </g>
  </g>
</svg>
